simulation/qsim/uart.msim.vcd
$comment
	File created using the following command:
		vcd file uart.msim.vcd -direction
$end
$date
	Tue Jan 04 14:52:01 2022
$end
$version
	ModelSim Version 2020.1
$end
$timescale
	1ps
$end

$scope module uart_vhd_vec_tst $end
$var wire 1 ! clk $end
$var wire 1 " rx $end
$var wire 1 # tx $end

$scope module i1 $end
$var wire 1 $ gnd $end
$var wire 1 % vcc $end
$var wire 1 & unknown $end
$var wire 1 ' devoe $end
$var wire 1 ( devclrn $end
$var wire 1 ) devpor $end
$var wire 1 * ww_devoe $end
$var wire 1 + ww_devclrn $end
$var wire 1 , ww_devpor $end
$var wire 1 - ww_clk $end
$var wire 1 . ww_rx $end
$var wire 1 / ww_tx $end
$var wire 1 0 \~QUARTUS_CREATED_ADC1~_CHSEL_bus\ [4] $end
$var wire 1 1 \~QUARTUS_CREATED_ADC1~_CHSEL_bus\ [3] $end
$var wire 1 2 \~QUARTUS_CREATED_ADC1~_CHSEL_bus\ [2] $end
$var wire 1 3 \~QUARTUS_CREATED_ADC1~_CHSEL_bus\ [1] $end
$var wire 1 4 \~QUARTUS_CREATED_ADC1~_CHSEL_bus\ [0] $end
$var wire 1 5 \clk~inputclkctrl_INCLK_bus\ [3] $end
$var wire 1 6 \clk~inputclkctrl_INCLK_bus\ [2] $end
$var wire 1 7 \clk~inputclkctrl_INCLK_bus\ [1] $end
$var wire 1 8 \clk~inputclkctrl_INCLK_bus\ [0] $end
$var wire 1 9 \rx~input_o\ $end
$var wire 1 : \~QUARTUS_CREATED_GND~I_combout\ $end
$var wire 1 ; \~QUARTUS_CREATED_UNVM~~busy\ $end
$var wire 1 < \~QUARTUS_CREATED_ADC1~~eoc\ $end
$var wire 1 = \tx~output_o\ $end
$var wire 1 > \clk~input_o\ $end
$var wire 1 ? \clk~inputclkctrl_outclk\ $end
$var wire 1 @ \bit_number[0]~2_combout\ $end
$var wire 1 A \count[1]~9_combout\ $end
$var wire 1 B \Add2~0_combout\ $end
$var wire 1 C \count[0]~10_combout\ $end
$var wire 1 D \Add2~1\ $end
$var wire 1 E \Add2~2_combout\ $end
$var wire 1 F \Add2~3\ $end
$var wire 1 G \Add2~4_combout\ $end
$var wire 1 H \count[2]~8_combout\ $end
$var wire 1 I \Add2~5\ $end
$var wire 1 J \Add2~7\ $end
$var wire 1 K \Add2~8_combout\ $end
$var wire 1 L \Add2~9\ $end
$var wire 1 M \Add2~10_combout\ $end
$var wire 1 N \Add2~11\ $end
$var wire 1 O \Add2~12_combout\ $end
$var wire 1 P \Equal4~0_combout\ $end
$var wire 1 Q \Add2~13\ $end
$var wire 1 R \Add2~14_combout\ $end
$var wire 1 S \count~3_combout\ $end
$var wire 1 T \Add2~15\ $end
$var wire 1 U \Add2~16_combout\ $end
$var wire 1 V \Add2~17\ $end
$var wire 1 W \Add2~18_combout\ $end
$var wire 1 X \Equal4~3_combout\ $end
$var wire 1 Y \count~6_combout\ $end
$var wire 1 Z \Add2~23\ $end
$var wire 1 [ \Add2~24_combout\ $end
$var wire 1 \ \count~2_combout\ $end
$var wire 1 ] \Add2~6_combout\ $end
$var wire 1 ^ \Equal4~1_combout\ $end
$var wire 1 _ \Equal4~2_combout\ $end
$var wire 1 ` \count~5_combout\ $end
$var wire 1 a \Add2~19\ $end
$var wire 1 b \Add2~20_combout\ $end
$var wire 1 c \Add2~21\ $end
$var wire 1 d \Add2~22_combout\ $end
$var wire 1 e \count~7_combout\ $end
$var wire 1 f \count~4_combout\ $end
$var wire 1 g \Equal0~2_combout\ $end
$var wire 1 h \Equal0~1_combout\ $end
$var wire 1 i \Equal0~0_combout\ $end
$var wire 1 j \Equal0~3_combout\ $end
$var wire 1 k \Add1~2_combout\ $end
$var wire 1 l \Add1~0_combout\ $end
$var wire 1 m \Equal3~0_combout\ $end
$var wire 1 n \Equal3~1_combout\ $end
$var wire 1 o \bit_number~1_combout\ $end
$var wire 1 p \Add1~1_combout\ $end
$var wire 1 q \bit_number~0_combout\ $end
$var wire 1 r \tx~0_combout\ $end
$var wire 1 s \tx~1_combout\ $end
$var wire 1 t \tx~reg0_q\ $end
$var wire 1 u bit_number [4] $end
$var wire 1 v bit_number [3] $end
$var wire 1 w bit_number [2] $end
$var wire 1 x bit_number [1] $end
$var wire 1 y bit_number [0] $end
$var wire 1 z count [12] $end
$var wire 1 { count [11] $end
$var wire 1 | count [10] $end
$var wire 1 } count [9] $end
$var wire 1 ~ count [8] $end
$var wire 1 !! count [7] $end
$var wire 1 "! count [6] $end
$var wire 1 #! count [5] $end
$var wire 1 $! count [4] $end
$var wire 1 %! count [3] $end
$var wire 1 &! count [2] $end
$var wire 1 '! count [1] $end
$var wire 1 (! count [0] $end
$upscope $end
$upscope $end
$enddefinitions $end
#0
$dumpvars
0!
0"
0#
0$
1%
x&
1'
1(
1)
1*
1+
1,
0-
0.
0/
09
0:
z;
z<
0=
0>
0?
1@
1A
0B
1C
1D
0E
0F
0G
1H
1I
1J
0K
0L
0M
1N
0O
1P
0Q
1R
1S
1T
1U
0V
1W
1X
1Y
1Z
1[
0\
1]
1^
1_
1`
1a
0b
0c
0d
0e
1f
1g
1h
1i
1j
0k
0l
0m
0n
0o
0p
0q
0r
0s
0t
0u
0v
0w
0x
0y
0z
0{
0|
0}
0~
0!!
0"!
0#!
0$!
0%!
0&!
0'!
0(!
15
16
17
08
00
01
02
03
04
$end
#10000
1!
1-
1>
18
1?
1'!
1(!
1&!
1!!
1z
1}
1~
1y
0@
1k
1s
0U
0W
0g
0[
0j
0R
1G
0I
1B
0D
1E
1F
0h
0G
0A
0E
0C
0P
0]
0H
0^
1\
1e
0X
0\
0_
1A
1H
#20000
0!
0-
0>
08
0?
#30000
1!
1-
1>
18
1?
0(!
0B
1D
1E
1C
1P
0A
#40000
0!
0-
0>
08
0?
#50000
1!
1-
1>
18
1?
0'!
1(!
1B
0D
0E
0F
1G
1A
1E
1F
0C
0P
0G
0A
0H
1H
#60000
0!
0-
0>
08
0?
#70000
1!
1-
1>
18
1?
0(!
0B
1D
0E
0F
1C
1P
1G
1A
0H
#80000
0!
0-
0>
08
0?
#90000
1!
1-
1>
18
1?
1'!
1(!
0&!
0G
1I
1B
0D
1E
1F
1G
0I
0A
0E
0C
0P
1]
1H
1\
1A
0]
0H
0\
#100000
0!
1"
0-
1.
19
0>
08
0?
#110000
1!
1-
1>
18
1?
0(!
0B
1D
1E
1C
1P
0A
#120000
0!
0-
0>
08
0?
#130000
1!
1-
1>
18
1?
0'!
1(!
1B
0D
0E
0F
0G
1I
1A
1E
1F
0C
0P
1G
0I
0A
1]
1H
1\
0]
0H
0\
#140000
0!
0-
0>
08
0?
#150000
1!
1-
1>
18
1?
0(!
0B
1D
0E
0F
1C
1P
0G
1I
1A
1]
1H
1\
#160000
0!
0-
0>
08
0?
#170000
1!
1-
1>
18
1?
1'!
1(!
1&!
1%!
0]
0J
0i
1G
0I
1B
0D
1E
1F
0G
0A
0E
0C
0P
1]
1J
0H
1K
0\
0K
1\
1A
1H
#180000
0!
0-
0>
08
0?
#190000
1!
1-
1>
18
1?
0(!
0B
1D
1E
1C
1P
0A
#200000
0!
0"
0-
0.
09
0>
08
0?
#210000
1!
1-
1>
18
1?
0'!
1(!
1B
0D
0E
0F
1G
1A
1E
1F
0C
0P
0G
0A
0H
1H
#220000
0!
0-
0>
08
0?
#230000
1!
1-
1>
18
1?
0(!
0B
1D
0E
0F
1C
1P
1G
1A
0H
#240000
0!
0-
0>
08
0?
#250000
1!
1-
1>
18
1?
1'!
1(!
0&!
0G
1I
1B
0D
1E
1F
1G
0I
0A
0E
0C
0P
0]
0J
1H
1K
0\
1A
1]
1J
0H
0K
1\
#260000
0!
0-
0>
08
0?
#270000
1!
1-
1>
18
1?
0(!
0B
1D
1E
1C
1P
0A
#280000
0!
0-
0>
08
0?
#290000
1!
1-
1>
18
1?
0'!
1(!
1B
0D
0E
0F
0G
1I
1A
1E
1F
0C
0P
1G
0I
0A
0]
0J
1H
1K
0\
1]
1J
0H
0K
1\
#300000
0!
1"
0-
1.
19
0>
08
0?
#310000
1!
1-
1>
18
1?
0(!
0B
1D
0E
0F
1C
1P
0G
1I
1A
0]
0J
1H
1K
0\
0P
#320000
0!
0-
0>
08
0?
#330000
1!
1-
1>
18
1?
1'!
1(!
1&!
1$!
0%!
1]
1J
0K
1L
1G
0I
1B
0D
1E
1F
0G
0A
0E
0C
0]
0H
1M
1K
0L
1\
0M
0\
1A
1H
#340000
0!
0-
0>
08
0?
#350000
1!
1-
1>
18
1?
0(!
0B
1D
1E
1C
0A
#360000
0!
0-
0>
08
0?
#370000
1!
1-
1>
18
1?
0'!
1(!
1B
0D
0E
0F
1G
1A
1E
1F
0C
0G
0A
0H
1H
#380000
0!
0-
0>
08
0?
#390000
1!
1-
1>
18
1?
0(!
0B
1D
0E
0F
1C
1G
1A
0H
#400000
0!
0"
0-
0.
09
0>
08
0?
#410000
1!
1-
1>
18
1?
1'!
1(!
0&!
0G
1I
1B
0D
1E
1F
1G
0I
0A
0E
0C
1]
1H
1\
1A
0]
0H
0\
#420000
0!
0-
0>
08
0?
#430000
1!
1-
1>
18
1?
0(!
0B
1D
1E
1C
0A
#440000
0!
0-
0>
08
0?
#450000
1!
1-
1>
18
1?
0'!
1(!
1B
0D
0E
0F
0G
1I
1A
1E
1F
0C
1G
0I
0A
1]
1H
1\
0]
0H
0\
#460000
0!
0-
0>
08
0?
#470000
1!
1-
1>
18
1?
0(!
0B
1D
0E
0F
1C
0G
1I
1A
1]
1H
1\
#480000
0!
0-
0>
08
0?
#490000
1!
1-
1>
18
1?
1'!
1(!
1&!
1%!
0]
0J
1G
0I
1B
0D
1E
1F
0G
0A
0E
0C
1]
1J
0H
0K
1L
0\
1M
1K
0L
1\
1A
1H
0M
#500000
0!
1"
0-
1.
19
0>
08
0?
#510000
1!
1-
1>
18
1?
0(!
0B
1D
1E
1C
0A
#520000
0!
0-
0>
08
0?
#530000
1!
1-
1>
18
1?
0'!
1(!
1B
0D
0E
0F
1G
1A
1E
1F
0C
0G
0A
0H
1H
#540000
0!
0-
0>
08
0?
#550000
1!
1-
1>
18
1?
0(!
0B
1D
0E
0F
1C
1G
1A
0H
#560000
0!
0-
0>
08
0?
#570000
1!
1-
1>
18
1?
1'!
1(!
0&!
0G
1I
1B
0D
1E
1F
1G
0I
0A
0E
0C
0]
0J
1H
0K
1L
0\
1A
1]
1J
0H
1K
0L
1\
1M
0M
#580000
0!
0-
0>
08
0?
#590000
1!
1-
1>
18
1?
0(!
0B
1D
1E
1C
0A
#600000
0!
0"
0-
0.
09
0>
08
0?
#610000
1!
1-
1>
18
1?
0'!
1(!
1B
0D
0E
0F
0G
1I
1A
1E
1F
0C
1G
0I
0A
0]
0J
1H
0K
1L
0\
1]
1J
0H
1K
0L
1\
1M
0M
#620000
0!
0-
0>
08
0?
#630000
1!
1-
1>
18
1?
0(!
0B
1D
0E
0F
1C
0G
1I
1A
0]
0J
1H
0K
1L
0\
1M
1P
0P
#640000
0!
0-
0>
08
0?
#650000
1!
1-
1>
18
1?
1'!
1(!
1#!
1&!
0$!
0%!
1]
1J
1K
0L
1G
0I
0M
0N
1B
0D
1E
1F
0G
0A
0E
0C
1O
0]
0H
1M
1N
0K
1\
0O
0\
1A
1H
#660000
0!
0-
0>
08
0?
#670000
1!
1-
1>
18
1?
0(!
0B
1D
1E
1C
0A
#680000
0!
0-
0>
08
0?
#690000
1!
1-
1>
18
1?
0'!
1(!
1B
0D
0E
0F
1G
1A
1E
1F
0C
0G
0A
0H
1H
#700000
0!
1"
0-
1.
19
0>
08
0?
#710000
1!
1-
1>
18
1?
0(!
0B
1D
0E
0F
1C
1G
1A
0H
#720000
0!
0-
0>
08
0?
#730000
1!
1-
1>
18
1?
1'!
1(!
0&!
0G
1I
1B
0D
1E
1F
1G
0I
0A
0E
0C
1]
1H
1\
1A
0]
0H
0\
#740000
0!
0-
0>
08
0?
#750000
1!
1-
1>
18
1?
0(!
0B
1D
1E
1C
0A
#760000
0!
0-
0>
08
0?
#770000
1!
1-
1>
18
1?
0'!
1(!
1B
0D
0E
0F
0G
1I
1A
1E
1F
0C
1G
0I
0A
1]
1H
1\
0]
0H
0\
#780000
0!
0-
0>
08
0?
#790000
1!
1-
1>
18
1?
0(!
0B
1D
0E
0F
1C
0G
1I
1A
1]
1H
1\
#800000
0!
0"
0-
0.
09
0>
08
0?
#810000
1!
1-
1>
18
1?
1'!
1(!
1&!
1%!
0]
0J
1G
0I
1B
0D
1E
1F
0G
0A
0E
0C
1]
1J
0H
1K
0\
0K
1\
1A
1H
#820000
0!
0-
0>
08
0?
#830000
1!
1-
1>
18
1?
0(!
0B
1D
1E
1C
0A
#840000
0!
0-
0>
08
0?
#850000
1!
1-
1>
18
1?
0'!
1(!
1B
0D
0E
0F
1G
1A
1E
1F
0C
0G
0A
0H
1H
#860000
0!
0-
0>
08
0?
#870000
1!
1-
1>
18
1?
0(!
0B
1D
0E
0F
1C
1G
1A
0H
#880000
0!
0-
0>
08
0?
#890000
1!
1-
1>
18
1?
1'!
1(!
0&!
0G
1I
1B
0D
1E
1F
1G
0I
0A
0E
0C
0]
0J
1H
1K
0\
1A
1]
1J
0H
0K
1\
#900000
0!
1"
0-
1.
19
0>
08
0?
#910000
1!
1-
1>
18
1?
0(!
0B
1D
1E
1C
0A
#920000
0!
0-
0>
08
0?
#930000
1!
1-
1>
18
1?
0'!
1(!
1B
0D
0E
0F
0G
1I
1A
1E
1F
0C
1G
0I
0A
0]
0J
1H
1K
0\
1]
1J
0H
0K
1\
#940000
0!
0-
0>
08
0?
#950000
1!
1-
1>
18
1?
0(!
0B
1D
0E
0F
1C
0G
1I
1A
0]
0J
1H
1K
0\
#960000
0!
0-
0>
08
0?
#970000
1!
1-
1>
18
1?
1'!
1(!
1&!
1$!
0%!
1]
1J
0K
1L
1G
0I
1B
0D
1E
1F
0G
0A
0E
0C
0]
0H
0M
0N
1K
0L
1\
1M
1N
1O
0\
1A
1H
0O
#980000
0!
0-
0>
08
0?
#990000
1!
1-
1>
18
1?
0(!
0B
1D
1E
1C
0A
#1000000
0!
0"
0-
0.
09
0>
08
0?
#1010000
1!
1-
1>
18
1?
0'!
1(!
1B
0D
0E
0F
1G
1A
1E
1F
0C
0G
0A
0H
1H
#1020000
0!
0-
0>
08
0?
#1030000
1!
1-
1>
18
1?
0(!
0B
1D
0E
0F
1C
1G
1A
0H
#1040000
0!
0-
0>
08
0?
#1050000
1!
1-
1>
18
1?
1'!
1(!
0&!
0G
1I
1B
0D
1E
1F
1G
0I
0A
0E
0C
1]
1H
1\
1A
0]
0H
0\
#1060000
0!
0-
0>
08
0?
#1070000
1!
1-
1>
18
1?
0(!
0B
1D
1E
1C
0A
#1080000
0!
0-
0>
08
0?
#1090000
1!
1-
1>
18
1?
0'!
1(!
1B
0D
0E
0F
0G
1I
1A
1E
1F
0C
1G
0I
0A
1]
1H
1\
0]
0H
0\
#1100000
0!
1"
0-
1.
19
0>
08
0?
#1110000
1!
1-
1>
18
1?
0(!
0B
1D
0E
0F
1C
0G
1I
1A
1]
1H
1\
#1120000
0!
0-
0>
08
0?
#1130000
1!
1-
1>
18
1?
1'!
1(!
1&!
1%!
0]
0J
1G
0I
1B
0D
1E
1F
0G
0A
0E
0C
1]
1J
0H
0K
1L
0\
0M
0N
1K
0L
1\
1A
1H
1M
1N
1O
0O
#1140000
0!
0-
0>
08
0?
#1150000
1!
1-
1>
18
1?
0(!
0B
1D
1E
1C
0A
#1160000
0!
0-
0>
08
0?
#1170000
1!
1-
1>
18
1?
0'!
1(!
1B
0D
0E
0F
1G
1A
1E
1F
0C
0G
0A
0H
1H
#1180000
0!
0-
0>
08
0?
#1190000
1!
1-
1>
18
1?
0(!
0B
1D
0E
0F
1C
1G
1A
0H
#1200000
0!
0"
0-
0.
09
0>
08
0?
#1210000
1!
1-
1>
18
1?
1'!
1(!
0&!
0G
1I
1B
0D
1E
1F
1G
0I
0A
0E
0C
0]
0J
1H
0K
1L
0\
1A
1]
1J
0H
1K
0L
1\
0M
0N
1O
1M
1N
0O
#1220000
0!
0-
0>
08
0?
#1230000
1!
1-
1>
18
1?
0(!
0B
1D
1E
1C
0A
#1240000
0!
0-
0>
08
0?
#1250000
1!
1-
1>
18
1?
0'!
1(!
1B
0D
0E
0F
0G
1I
1A
1E
1F
0C
1G
0I
0A
0]
0J
1H
0K
1L
0\
1]
1J
0H
1K
0L
1\
0M
0N
1O
1M
1N
0O
#1260000
0!
0-
0>
08
0?
#1270000
1!
1-
1>
18
1?
0(!
0B
1D
0E
0F
1C
0G
1I
1A
0]
0J
1H
0K
1L
0\
0M
0N
1O
1P
0P
#1280000
0!
0-
0>
08
0?
#1290000
1!
1-
1>
18
1?
1'!
1(!
0#!
1&!
0$!
1"!
0%!
1]
1J
0O
1Q
1K
0L
1G
0I
1M
1N
1B
0D
1E
1F
0G
0A
0E
0C
1O
0Q
0]
0H
0M
1R
0K
1\
0S
0\
0R
1A
1H
1S
#1300000
0!
1"
0-
1.
19
0>
08
0?
#1310000
1!
1-
1>
18
1?
0(!
0B
1D
1E
1C
0A
#1320000
0!
0-
0>
08
0?
#1330000
1!
1-
1>
18
1?
0'!
1(!
1B
0D
0E
0F
1G
1A
1E
1F
0C
0G
0A
0H
1H
#1340000
0!
0-
0>
08
0?
#1350000
1!
1-
1>
18
1?
0(!
0B
1D
0E
0F
1C
1G
1A
0H
#1360000
0!
0-
0>
08
0?
#1370000
1!
1-
1>
18
1?
1'!
1(!
0&!
0G
1I
1B
0D
1E
1F
1G
0I
0A
0E
0C
1]
1H
1\
1A
0]
0H
0\
#1380000
0!
0-
0>
08
0?
#1390000
1!
1-
1>
18
1?
0(!
0B
1D
1E
1C
0A
#1400000
0!
0"
0-
0.
09
0>
08
0?
#1410000
1!
1-
1>
18
1?
0'!
1(!
1B
0D
0E
0F
0G
1I
1A
1E
1F
0C
1G
0I
0A
1]
1H
1\
0]
0H
0\
#1420000
0!
0-
0>
08
0?
#1430000
1!
1-
1>
18
1?
0(!
0B
1D
0E
0F
1C
0G
1I
1A
1]
1H
1\
#1440000
0!
0-
0>
08
0?
#1450000
1!
1-
1>
18
1?
1'!
1(!
1&!
1%!
0]
0J
1G
0I
1B
0D
1E
1F
0G
0A
0E
0C
1]
1J
0H
1K
0\
0K
1\
1A
1H
#1460000
0!
0-
0>
08
0?
#1470000
1!
1-
1>
18
1?
0(!
0B
1D
1E
1C
0A
#1480000
0!
0-
0>
08
0?
#1490000
1!
1-
1>
18
1?
0'!
1(!
1B
0D
0E
0F
1G
1A
1E
1F
0C
0G
0A
0H
1H
#1500000
0!
1"
0-
1.
19
0>
08
0?
#1510000
1!
1-
1>
18
1?
0(!
0B
1D
0E
0F
1C
1G
1A
0H
#1520000
0!
0-
0>
08
0?
#1530000
1!
1-
1>
18
1?
1'!
1(!
0&!
0G
1I
1B
0D
1E
1F
1G
0I
0A
0E
0C
0]
0J
1H
1K
0\
1A
1]
1J
0H
0K
1\
#1540000
0!
0-
0>
08
0?
#1550000
1!
1-
1>
18
1?
0(!
0B
1D
1E
1C
0A
#1560000
0!
0-
0>
08
0?
#1570000
1!
1-
1>
18
1?
0'!
1(!
1B
0D
0E
0F
0G
1I
1A
1E
1F
0C
1G
0I
0A
0]
0J
1H
1K
0\
1]
1J
0H
0K
1\
#1580000
0!
0-
0>
08
0?
#1590000
1!
1-
1>
18
1?
0(!
0B
1D
0E
0F
1C
0G
1I
1A
0]
0J
1H
1K
0\
#1600000
0!
0"
0-
0.
09
0>
08
0?
#1610000
1!
1-
1>
18
1?
1'!
1(!
1&!
1$!
0%!
1]
1J
0K
1L
1G
0I
1B
0D
1E
1F
0G
0A
0E
0C
0]
0H
1M
1K
0L
1\
0M
0\
1A
1H
#1620000
0!
0-
0>
08
0?
#1630000
1!
1-
1>
18
1?
0(!
0B
1D
1E
1C
0A
#1640000
0!
0-
0>
08
0?
#1650000
1!
1-
1>
18
1?
0'!
1(!
1B
0D
0E
0F
1G
1A
1E
1F
0C
0G
0A
0H
1H
#1660000
0!
0-
0>
08
0?
#1670000
1!
1-
1>
18
1?
0(!
0B
1D
0E
0F
1C
1G
1A
0H
#1680000
0!
0-
0>
08
0?
#1690000
1!
1-
1>
18
1?
1'!
1(!
0&!
0G
1I
1B
0D
1E
1F
1G
0I
0A
0E
0C
1]
1H
1\
1A
0]
0H
0\
#1700000
0!
1"
0-
1.
19
0>
08
0?
#1710000
1!
1-
1>
18
1?
0(!
0B
1D
1E
1C
0A
#1720000
0!
0-
0>
08
0?
#1730000
1!
1-
1>
18
1?
0'!
1(!
1B
0D
0E
0F
0G
1I
1A
1E
1F
0C
1G
0I
0A
1]
1H
1\
0]
0H
0\
#1740000
0!
0-
0>
08
0?
#1750000
1!
1-
1>
18
1?
0(!
0B
1D
0E
0F
1C
0G
1I
1A
1]
1H
1\
#1760000
0!
0-
0>
08
0?
#1770000
1!
1-
1>
18
1?
1'!
1(!
1&!
1%!
0]
0J
1G
0I
1B
0D
1E
1F
0G
0A
0E
0C
1]
1J
0H
0K
1L
0\
1M
1K
0L
1\
1A
1H
0M
#1780000
0!
0-
0>
08
0?
#1790000
1!
1-
1>
18
1?
0(!
0B
1D
1E
1C
0A
#1800000
0!
0"
0-
0.
09
0>
08
0?
#1810000
1!
1-
1>
18
1?
0'!
1(!
1B
0D
0E
0F
1G
1A
1E
1F
0C
0G
0A
0H
1H
#1820000
0!
0-
0>
08
0?
#1830000
1!
1-
1>
18
1?
0(!
0B
1D
0E
0F
1C
1G
1A
0H
#1840000
0!
0-
0>
08
0?
#1850000
1!
1-
1>
18
1?
1'!
1(!
0&!
0G
1I
1B
0D
1E
1F
1G
0I
0A
0E
0C
0]
0J
1H
0K
1L
0\
1A
1]
1J
0H
1K
0L
1\
1M
0M
#1860000
0!
0-
0>
08
0?
#1870000
1!
1-
1>
18
1?
0(!
0B
1D
1E
1C
0A
#1880000
0!
0-
0>
08
0?
#1890000
1!
1-
1>
18
1?
0'!
1(!
1B
0D
0E
0F
0G
1I
1A
1E
1F
0C
1G
0I
0A
0]
0J
1H
0K
1L
0\
1]
1J
0H
1K
0L
1\
1M
0M
#1900000
0!
1"
0-
1.
19
0>
08
0?
#1910000
1!
1-
1>
18
1?
0(!
0B
1D
0E
0F
1C
0G
1I
1A
0]
0J
1H
0K
1L
0\
1M
#1920000
0!
0-
0>
08
0?
#1930000
1!
1-
1>
18
1?
1'!
1(!
1#!
1&!
0$!
0%!
1]
1J
1K
0L
1G
0I
0M
0N
1B
0D
1E
1F
0G
0A
0E
0C
0O
1Q
0]
0H
1M
1N
0K
1\
1O
0Q
0\
1R
1A
1H
0S
0R
1S
#1940000
0!
0-
0>
08
0?
#1950000
1!
1-
1>
18
1?
0(!
0B
1D
1E
1C
0A
#1960000
0!
0-
0>
08
0?
#1970000
1!
1-
1>
18
1?
0'!
1(!
1B
0D
0E
0F
1G
1A
1E
1F
0C
0G
0A
0H
1H
#1980000
0!
0-
0>
08
0?
#1990000
1!
1-
1>
18
1?
0(!
0B
1D
0E
0F
1C
1G
1A
0H
#2000000
0!
0"
0-
0.
09
0>
08
0?
#2010000
1!
1-
1>
18
1?
1'!
1(!
0&!
0G
1I
1B
0D
1E
1F
1G
0I
0A
0E
0C
1]
1H
1\
1A
0]
0H
0\
#2020000
0!
0-
0>
08
0?
#2030000
1!
1-
1>
18
1?
0(!
0B
1D
1E
1C
0A
#2040000
0!
0-
0>
08
0?
#2050000
1!
1-
1>
18
1?
0'!
1(!
1B
0D
0E
0F
0G
1I
1A
1E
1F
0C
1G
0I
0A
1]
1H
1\
0]
0H
0\
#2060000
0!
0-
0>
08
0?
#2070000
1!
1-
1>
18
1?
0(!
0B
1D
0E
0F
1C
0G
1I
1A
1]
1H
1\
#2080000
0!
0-
0>
08
0?
#2090000
1!
1-
1>
18
1?
1'!
1(!
1&!
1%!
0]
0J
1G
0I
1B
0D
1E
1F
0G
0A
0E
0C
1]
1J
0H
1K
0\
0K
1\
1A
1H
#2100000
0!
1"
0-
1.
19
0>
08
0?
#2110000
1!
1-
1>
18
1?
0(!
0B
1D
1E
1C
0A
#2120000
0!
0-
0>
08
0?
#2130000
1!
1-
1>
18
1?
0'!
1(!
1B
0D
0E
0F
1G
1A
1E
1F
0C
0G
0A
0H
1H
#2140000
0!
0-
0>
08
0?
#2150000
1!
1-
1>
18
1?
0(!
0B
1D
0E
0F
1C
1G
1A
0H
#2160000
0!
0-
0>
08
0?
#2170000
1!
1-
1>
18
1?
1'!
1(!
0&!
0G
1I
1B
0D
1E
1F
1G
0I
0A
0E
0C
0]
0J
1H
1K
0\
1A
1]
1J
0H
0K
1\
#2180000
0!
0-
0>
08
0?
#2190000
1!
1-
1>
18
1?
0(!
0B
1D
1E
1C
0A
#2200000
0!
0"
0-
0.
09
0>
08
0?
#2210000
1!
1-
1>
18
1?
0'!
1(!
1B
0D
0E
0F
0G
1I
1A
1E
1F
0C
1G
0I
0A
0]
0J
1H
1K
0\
1]
1J
0H
0K
1\
#2220000
0!
0-
0>
08
0?
#2230000
1!
1-
1>
18
1?
0(!
0B
1D
0E
0F
1C
0G
1I
1A
0]
0J
1H
1K
0\
#2240000
0!
0-
0>
08
0?
#2250000
1!
1-
1>
18
1?
1'!
1(!
1&!
1$!
0%!
1]
1J
0K
1L
1G
0I
1B
0D
1E
1F
0G
0A
0E
0C
0]
0H
0M
0N
1K
0L
1\
1M
1N
0O
1Q
0\
1A
1H
1R
1O
0Q
0R
0S
1S
#2260000
0!
0-
0>
08
0?
#2270000
1!
1-
1>
18
1?
0(!
0B
1D
1E
1C
0A
#2280000
0!
0-
0>
08
0?
#2290000
1!
1-
1>
18
1?
0'!
1(!
1B
0D
0E
0F
1G
1A
1E
1F
0C
0G
0A
0H
1H
#2300000
0!
1"
0-
1.
19
0>
08
0?
#2310000
1!
1-
1>
18
1?
0(!
0B
1D
0E
0F
1C
1G
1A
0H
#2320000
0!
0-
0>
08
0?
#2330000
1!
1-
1>
18
1?
1'!
1(!
0&!
0G
1I
1B
0D
1E
1F
1G
0I
0A
0E
0C
1]
1H
1\
1A
0]
0H
0\
#2340000
0!
0-
0>
08
0?
#2350000
1!
1-
1>
18
1?
0(!
0B
1D
1E
1C
0A
#2360000
0!
0-
0>
08
0?
#2370000
1!
1-
1>
18
1?
0'!
1(!
1B
0D
0E
0F
0G
1I
1A
1E
1F
0C
1G
0I
0A
1]
1H
1\
0]
0H
0\
#2380000
0!
0-
0>
08
0?
#2390000
1!
1-
1>
18
1?
0(!
0B
1D
0E
0F
1C
0G
1I
1A
1]
1H
1\
#2400000
0!
0"
0-
0.
09
0>
08
0?
#2410000
1!
1-
1>
18
1?
1'!
1(!
1&!
1%!
0]
0J
1G
0I
1B
0D
1E
1F
0G
0A
0E
0C
1]
1J
0H
0K
1L
0\
0M
0N
1K
0L
1\
1A
1H
1M
1N
0O
1Q
1R
1O
0Q
0R
0S
1^
1S
0^
#2420000
0!
0-
0>
08
0?
#2430000
1!
1-
1>
18
1?
0(!
0B
1D
1E
1C
0A
#2440000
0!
0-
0>
08
0?
#2450000
1!
1-
1>
18
1?
0'!
1(!
1B
0D
0E
0F
1G
1A
1E
1F
0C
0G
0A
0H
1H
#2460000
0!
0-
0>
08
0?
#2470000
1!
1-
1>
18
1?
0(!
0B
1D
0E
0F
1C
1G
1A
0H
#2480000
0!
0-
0>
08
0?
#2490000
1!
1-
1>
18
1?
1'!
1(!
0&!
0G
1I
1B
0D
1E
1F
1G
0I
0A
0E
0C
0]
0J
1H
0K
1L
0\
1A
1]
1J
0H
1K
0L
1\
0M
0N
0O
1Q
1M
1N
1O
0Q
1R
0S
0R
1S
#2500000
0!
1"
0-
1.
19
0>
08
0?
#2510000
1!
1-
1>
18
1?
0(!
0B
1D
1E
1C
0A
#2520000
0!
0-
0>
08
0?
#2530000
1!
1-
1>
18
1?
0'!
1(!
1B
0D
0E
0F
0G
1I
1A
1E
1F
0C
1G
0I
0A
0]
0J
1H
0K
1L
0\
1]
1J
0H
1K
0L
1\
0M
0N
0O
1Q
1M
1N
1O
0Q
1R
0S
0R
1S
#2540000
0!
0-
0>
08
0?
#2550000
1!
1-
1>
18
1?
0(!
0B
1D
0E
0F
1C
0G
1I
1A
0]
0J
1H
0K
1L
0\
0M
0N
0O
1Q
1R
1P
0S
#2560000
0!
0-
0>
08
0?
#2570000
1!
1-
1>
18
1?
1'!
1(!
0#!
1&!
0$!
0"!
0!!
0%!
1]
1J
0R
0T
1O
0Q
1K
0L
1G
0I
1M
1N
1i
1B
0D
1E
1F
0G
0A
0E
0C
0O
0]
0H
0M
1R
1T
0P
1U
1S
0K
1\
0f
0U
0S
0\
1A
1H
1f
#2580000
0!
0-
0>
08
0?
#2590000
1!
1-
1>
18
1?
0(!
0B
1D
1E
1C
1P
0A
#2600000
0!
0"
0-
0.
09
0>
08
0?
#2610000
1!
1-
1>
18
1?
0'!
1(!
1B
0D
0E
0F
1G
1A
1E
1F
0C
0P
0G
0A
0H
1H
#2620000
0!
0-
0>
08
0?
#2630000
1!
1-
1>
18
1?
0(!
0B
1D
0E
0F
1C
1P
1G
1A
0H
#2640000
0!
0-
0>
08
0?
#2650000
1!
1-
1>
18
1?
1'!
1(!
0&!
0G
1I
1B
0D
1E
1F
1G
0I
0A
0E
0C
0P
1]
1H
1\
1A
0]
0H
0\
#2660000
0!
0-
0>
08
0?
#2670000
1!
1-
1>
18
1?
0(!
0B
1D
1E
1C
1P
0A
#2680000
0!
0-
0>
08
0?
